{
  "components": [
    {
      "id": 46327,
      "name": "API",
      "state": "operational",
      "updated_at": "2026-06-04T22:39:15.581Z"
    },
    {
      "id": 87153,
      "name": "General",
      "state": "operational",
      "updated_at": "2026-03-27T19:37:50.138Z"
    },
    {
      "id": 87154,
      "name": "Sending",
      "state": "operational",
      "updated_at": "2026-06-04T22:39:15.583Z"
    },
    {
      "id": 88825,
      "name": "Receiving",
      "state": "operational",
      "updated_at": "2025-09-05T23:16:26.727Z"
    },
    {
      "id": 93905,
      "name": "Sandbox",
      "state": "operational",
      "updated_at": "2026-03-04T17:46:45.733Z"
    },
    {
      "id": 46328,
      "name": "SMTP",
      "state": "operational",
      "updated_at": "2026-06-04T22:39:15.584Z"
    },
    {
      "id": 87155,
      "name": "General",
      "state": "operational",
      "updated_at": "2026-03-04T17:43:18.654Z"
    },
    {
      "id": 87151,
      "name": "Sending",
      "state": "operational",
      "updated_at": "2026-06-04T22:39:15.586Z"
    },
    {
      "id": 87152,
      "name": "Receiving",
      "state": "operational",
      "updated_at": "2026-03-04T17:43:18.663Z"
    },
    {
      "id": 91953,
      "name": "Inbound",
      "state": "operational",
      "updated_at": "2026-04-10T02:27:34.082Z"
    }
  ],
  "meta": {
    "count": 10,
    "total_count": 19,
    "next_page": "/api/v1/components?page=2"
  }
}