{
  "notices": [
    {
      "id": 503442,
      "type": "unplanned",
      "state": "resolved",
      "timeline_state": "past"
    }
  ],
  "meta": {
    "count": 1,
    "total_count": 3,
    "next_page": "/api/v1/notices?page=3"
  }
}
